[
    {
        "arguments": [
            "clang++",
            "-c",
            "-target",
            "armv7ar-none-none-eabi",
            "-fno-ms-extensions",
            "-fno-ms-compatibility",
            "-fno-delayed-template-parsing",
            "-isystemc:\\program files\\pros\\toolchain\\usr\\bin\\../lib/gcc/arm-none-eabi/7.2.1/../../../../arm-none-eabi/include/c++/7.2.1",
            "-isystemc:\\program files\\pros\\toolchain\\usr\\bin\\../lib/gcc/arm-none-eabi/7.2.1/../../../../arm-none-eabi/include/c++/7.2.1/arm-none-eabi/thumb/v7-ar/fpv3/softfp",
            "-isystemc:\\program files\\pros\\toolchain\\usr\\bin\\../lib/gcc/arm-none-eabi/7.2.1/../../../../arm-none-eabi/include/c++/7.2.1/backward",
            "-isystemc:\\program files\\pros\\toolchain\\usr\\bin\\../lib/gcc/arm-none-eabi/7.2.1/include",
            "-isystemc:\\program files\\pros\\toolchain\\usr\\bin\\../lib/gcc/arm-none-eabi/7.2.1/include-fixed",
            "-isystemc:\\program files\\pros\\toolchain\\usr\\bin\\../lib/gcc/arm-none-eabi/7.2.1/../../../../arm-none-eabi/include",
            "-iquote./include",
            "-iquote./include/./",
            "-mcpu=cortex-a9",
            "-mfpu=neon-fp16",
            "-mfloat-abi=softfp",
            "-D_POSIX_THREADS",
            "-D_UNIX98_THREAD_MUTEX_ATTRIBUTES",
            "-Os",
            "-funwind-tables",
            "-ffunction-sections",
            "-fdata-sections",
            "-fdiagnostics-color",
            "--std=gnu++17",
            "-o",
            "C:/Users/awsom/AppData/Local/Temp/tmp8vvjy84w/autonomous.cpp.o",
            "src\\autonomous.cpp"
        ],
        "directory": "C:\\Users\\awsom\\Desktop\\vex-turning-point--18-19\\v5",
        "file": "src\\autonomous.cpp"
    },
    {
        "arguments": [
            "clang++",
            "-c",
            "-target",
            "armv7ar-none-none-eabi",
            "-fno-ms-extensions",
            "-fno-ms-compatibility",
            "-fno-delayed-template-parsing",
            "-isystemc:\\program files\\pros\\toolchain\\usr\\bin\\../lib/gcc/arm-none-eabi/7.2.1/../../../../arm-none-eabi/include/c++/7.2.1",
            "-isystemc:\\program files\\pros\\toolchain\\usr\\bin\\../lib/gcc/arm-none-eabi/7.2.1/../../../../arm-none-eabi/include/c++/7.2.1/arm-none-eabi/thumb/v7-ar/fpv3/softfp",
            "-isystemc:\\program files\\pros\\toolchain\\usr\\bin\\../lib/gcc/arm-none-eabi/7.2.1/../../../../arm-none-eabi/include/c++/7.2.1/backward",
            "-isystemc:\\program files\\pros\\toolchain\\usr\\bin\\../lib/gcc/arm-none-eabi/7.2.1/include",
            "-isystemc:\\program files\\pros\\toolchain\\usr\\bin\\../lib/gcc/arm-none-eabi/7.2.1/include-fixed",
            "-isystemc:\\program files\\pros\\toolchain\\usr\\bin\\../lib/gcc/arm-none-eabi/7.2.1/../../../../arm-none-eabi/include",
            "-iquote./include",
            "-iquote./include/./",
            "-mcpu=cortex-a9",
            "-mfpu=neon-fp16",
            "-mfloat-abi=softfp",
            "-D_POSIX_THREADS",
            "-D_UNIX98_THREAD_MUTEX_ATTRIBUTES",
            "-Os",
            "-funwind-tables",
            "-ffunction-sections",
            "-fdata-sections",
            "-fdiagnostics-color",
            "--std=gnu++17",
            "-o",
            "C:/Users/awsom/AppData/Local/Temp/tmp8vvjy84w/initialize.cpp.o",
            "src\\initialize.cpp"
        ],
        "directory": "C:\\Users\\awsom\\Desktop\\vex-turning-point--18-19\\v5",
        "file": "src\\initialize.cpp"
    },
    {
        "arguments": [
            "clang++",
            "-c",
            "-target",
            "armv7ar-none-none-eabi",
            "-fno-ms-extensions",
            "-fno-ms-compatibility",
            "-fno-delayed-template-parsing",
            "-isystemc:\\program files\\pros\\toolchain\\usr\\bin\\../lib/gcc/arm-none-eabi/7.2.1/../../../../arm-none-eabi/include/c++/7.2.1",
            "-isystemc:\\program files\\pros\\toolchain\\usr\\bin\\../lib/gcc/arm-none-eabi/7.2.1/../../../../arm-none-eabi/include/c++/7.2.1/arm-none-eabi/thumb/v7-ar/fpv3/softfp",
            "-isystemc:\\program files\\pros\\toolchain\\usr\\bin\\../lib/gcc/arm-none-eabi/7.2.1/../../../../arm-none-eabi/include/c++/7.2.1/backward",
            "-isystemc:\\program files\\pros\\toolchain\\usr\\bin\\../lib/gcc/arm-none-eabi/7.2.1/include",
            "-isystemc:\\program files\\pros\\toolchain\\usr\\bin\\../lib/gcc/arm-none-eabi/7.2.1/include-fixed",
            "-isystemc:\\program files\\pros\\toolchain\\usr\\bin\\../lib/gcc/arm-none-eabi/7.2.1/../../../../arm-none-eabi/include",
            "-iquote./include",
            "-iquote./include/./",
            "-mcpu=cortex-a9",
            "-mfpu=neon-fp16",
            "-mfloat-abi=softfp",
            "-D_POSIX_THREADS",
            "-D_UNIX98_THREAD_MUTEX_ATTRIBUTES",
            "-Os",
            "-funwind-tables",
            "-ffunction-sections",
            "-fdata-sections",
            "-fdiagnostics-color",
            "--std=gnu++17",
            "-o",
            "C:/Users/awsom/AppData/Local/Temp/tmp8vvjy84w/opcontrol.cpp.o",
            "src\\opcontrol.cpp"
        ],
        "directory": "C:\\Users\\awsom\\Desktop\\vex-turning-point--18-19\\v5",
        "file": "src\\opcontrol.cpp"
    }
]